{
	"base" : 
	{ 
		"file" : "base.png",
		"frames" : 
		[{
			"position" : [0, 0],
			"size" : [200, 200],
			"duration" : 500
		},{
			"position" : [200, 0],
			"size" : [200, 200],
			"duration" : 100
		}]
	}, 
	"sleeping" :
	{
		"file" : "base.png",
		"frames" : 
		[{
			"position" : [400, 0],
			"size" : [200, 200],
			"duration" : 100
		}]
	}

}