{
	"animal" : "puppy",
	"commands": 
	[{
		"trigger" : ["sit", "set"],
		"response" : "Your puppy sits down and looks at you expectantly.",
		"animation" : "base"
	}, {
		"trigger" : ["jump", "up"],
		"response": "Your puppy leaps around happily.",
		"animation" : "base"
	}, {
		"trigger" : ["listen", "hey"],
		"response" : "Your puppy's ears perk up.",
		"animation" : "base"
	}, {
		"trigger" : ["speak", "bark", "squirrel"],
		"response" : "BARK BARK!",
		"animation" : "base"
	}, {
		"trigger" : ["roll", "over"],
		"response" : "Your puppy rolls over and awaits tummy rubs.",
		"animation" : "base"
	}, {
		"trigger" : ["dead"],
		"response" : "Your puppy makes a mournful show of it.",
		"animation" : "base"
	}, {
		"trigger" : ["bath", "clean"],
		"response" : "Your puppy isn't sure about that idea.",
		"animation" : "base"
	}, {
		"trigger" : ["bad"],
		"response" : "Your puppy isn't a bad dog...",
		"animation" : "base"
	}, {
		"trigger" : ["nothing_heard"],
		"response" : "Your puppy has stopped paying attention.",
		"animation" : "base"
	}, {
		"trigger" : ["default_reaction"],
		"response" : "Your puppy is happy to hear your voice.",
		"animation" : "base"
	}]
}