{
    "sky is clear": {
        "foregroundScript": "ground/default.js",
        "backgroundScript": "sky/default.js"
    },
    "scattered clouds": {
        "foregroundScript": "ground/default.js",
        "backgroundScript": "sky/default.js"
    },
    "shower rain": {
        "foregroundScript": "ground/default.js",
        "backgroundScript": "sky/rain.js"
    },
    "Rain": {
        "foregroundScript": "ground/default.js",
        "backgroundScript": "sky/rain.js"
    },
    "mist": {
        "foregroundScript": "ground/default.js",
        "backgroundScript": "sky/rain.js"
    },
    "snow": {
        "foregroundScript": "ground/default.js",
        "backgroundScript": "sky/snow.js"
    },
    "default": {
        "foregroundScript": "ground/default.js",
        "backgroundScript": "sky/default.js"
    }
}